cod_uf;capital;resto;rm;rural;Total
11;6,7%;4,4%;NA;10,7%;7,1%
12;8,9%;7,6%;NA;14,6%;9,8%
13;15,6%;6,6%;NA;17,2%;14,9%
14;6,9%;6,5%;NA;16,2%;7,3%
15;10,0%;9,0%;7,9%;11,5%;9,8%
16;9,5%;8,4%;NA;20,7%;9,6%
17;6,5%;6,4%;NA;16,5%;7,9%
21;11,5%;9,9%;NA;15,5%;12,3%
22;6,8%;7,6%;NA;9,7%;7,6%
23;7,2%;9,3%;6,5%;10,1%;8,0%
24;8,3%;6,0%;NA;8,8%;7,9%
25;9,4%;7,5%;NA;11,6%;9,0%
26;6,2%;6,4%;11,0%;9,4%;8,7%
27;11,0%;12,0%;NA;8,3%;10,8%
28;8,2%;11,0%;NA;6,1%;8,9%
29;13,3%;7,0%;7,1%;10,8%;10,4%
31;7,3%;6,1%;10,4%;8,8%;7,5%
32;3,6%;8,2%;NA;8,6%;7,6%
33;9,0%;7,8%;13,6%;9,0%;10,3%
35;10,2%;5,5%;9,7%;9,6%;8,6%
41;5,4%;8,1%;7,5%;12,8%;7,7%
42;5,7%;5,6%;NA;10,2%;6,2%
43;7,5%;5,0%;6,8%;7,9%;6,4%
50;7,5%;3,0%;NA;8,7%;6,5%
51;9,4%;7,5%;NA;22,5%;9,6%
52;7,2%;8,9%;NA;8,1%;8,2%
53;9,0%;NA;NA;9,2%;9,0%
Brasil;9,4%;6,8%;10,3%;10,5%;8,9%
