uf,V1
Brasil,0.00843806104129264
DF,0
GO,0
MT,0
MS,0.0253164556962025
RS,0.0140845070422535
SC,0.0101694915254237
PR,0.0075187969924812
SP,0.0170542635658915
RJ,0.0217391304347826
ES,0.0256410256410256
MG,0.00703399765533412
BA,0.00479616306954436
SE,0
AL,0
PE,0.00540540540540541
PB,0
RN,0
CE,0.0108695652173913
PI,0
MA,0.00921658986175115
TO,0.0143884892086331
AP,0
PA,0
RR,0.0666666666666667
AM,0.0161290322580645
AC,0
RO,0
