uf,V1
Brasil,0.338420107719928
DF,1
GO,0.126016260162602
MT,0.163120567375887
MS,0.493670886075949
RS,0.492957746478873
SC,0.583050847457627
PR,0.548872180451128
SP,0.435658914728682
RJ,0.880434782608696
ES,0.935897435897436
MG,0.323563892145369
BA,0.191846522781775
SE,0.186666666666667
AL,0.352941176470588
PE,0.324324324324324
PB,0.10762331838565
RN,0.0778443113772455
CE,0.309782608695652
PI,0.0401785714285714
MA,0.124423963133641
TO,0.0503597122302158
AP,0.4375
PA,0.305555555555556
RR,0.4
AM,0.661290322580645
AC,0.363636363636364
RO,0.211538461538462
